P8105_hw3_jn2761
…
In the resulting dataset, I have 50400 observation and 6 variables,the data contain a total of 35 days of observation, week range from first week to fifth week. The dataset contains variables - weekday.weekend: variables that classify whether the observation is made on weekdays of weekend - number_of_days: variables that record the number of days that the observation has been going on - number-of-weeks:variables that record the number of weeks that the observation has been going on - day: variable specify on the specific days in which the observation is recorded - minute: the specific days in which the observation is recorded - activity: the activity counts for each minute of a 24-hour day starting at midnight.

2.Traditional analyses of accelerometer data focus on the total activity over the day. Using your tidied dataset, aggregate accross minutes to create a total activity variable for each day, and create a table showing these totals. Are any trends apparent?

CHF_df_tidy %>%
  group_by(number_of_days) %>%
 summarize(total_activity=sum(activity)) 

## `summarise()` ungrouping output (override with `.groups` argument)

## # A tibble: 35 x 2
##    number_of_days total_activity
##             <dbl>          <dbl>
##  1              1        480543.
##  2              2         78828.
##  3              3        376254 
##  4              4        631105 
##  5              5        355924.
##  6              6        307094.
##  7              7        340115.
##  8              8        568839 
##  9              9        295431 
## 10             10        607175 
## #  with 25 more rows
…
ny_noaa %>%
  group_by(snow) %>%
  summarize(n_obs = n()) %>%
arrange(min_rank(desc(n_obs)))

## `summarise()` ungrouping output (override with `.groups` argument)

## # A tibble: 282 x 2
##     snow   n_obs
##    <int>   <int>
##  1     0 2008508
##  2    NA  381221
##  3    25   31022
##  4    13   23095
##  5    51   18274
##  6    76   10173
##  7     8    9962
##  8     5    9748
##  9    38    9197
## 10     3    8790
## #  with 272 more rows
…
